[gd_resource type="StyleBoxFlat" format=2]

[resource]
bg_color = Color( 0.141176, 0.0627451, 0.321569, 1 )
border_width_left = 2
border_width_top = 2
border_width_right = 2
border_width_bottom = 2
border_color = Color( 0.831373, 0.443137, 0.0784314, 1 )
corner_radius_top_left = 10
corner_radius_top_right = 10
corner_radius_bottom_right = 10
corner_radius_bottom_left = 10
